<?xml version="1.0" encoding="UTF-8" standalone="no"?>
<!-- Created with Inkscape (http://www.inkscape.org/) -->

<svg
   xmlns:dc="http://purl.org/dc/elements/1.1/"
   xmlns:cc="http://creativecommons.org/ns#"
   xmlns:rdf="http://www.w3.org/1999/02/22-rdf-syntax-ns#"
   xmlns:svg="http://www.w3.org/2000/svg"
   xmlns="http://www.w3.org/2000/svg"
   xmlns:sodipodi="http://sodipodi.sourceforge.net/DTD/sodipodi-0.dtd"
   xmlns:inkscape="http://www.inkscape.org/namespaces/inkscape"
   width="297mm"
   height="210mm"
   viewBox="0 0 297 210"
   version="1.1"
   id="svg8"
   sodipodi:docname="logo.svg"
   inkscape:version="0.92.4 5da689c313, 2019-01-14"
   inkscape:export-filename="/home/revil/Devel/godot-gamebook-editor/assets/splash.png"
   inkscape:export-xdpi="68.459045"
   inkscape:export-ydpi="68.459045">
  <defs
     id="defs2" />
  <sodipodi:namedview
     id="base"
     pagecolor="#ffffff"
     bordercolor="#666666"
     borderopacity="1.0"
     inkscape:pageopacity="0.0"
     inkscape:pageshadow="2"
     inkscape:zoom="0.35"
     inkscape:cx="-171.42857"
     inkscape:cy="548.57143"
     inkscape:document-units="mm"
     inkscape:current-layer="layer1"
     showgrid="false"
     inkscape:window-width="1920"
     inkscape:window-height="1016"
     inkscape:window-x="0"
     inkscape:window-y="27"
     inkscape:window-maximized="1"
     inkscape:pagecheckerboard="true" />
  <metadata
     id="metadata5">
    <rdf:RDF>
      <cc:Work
         rdf:about="">
        <dc:format>image/svg+xml</dc:format>
        <dc:type
           rdf:resource="http://purl.org/dc/dcmitype/StillImage" />
        <dc:title></dc:title>
      </cc:Work>
    </rdf:RDF>
  </metadata>
  <g
     inkscape:label="Layer 1"
     inkscape:groupmode="layer"
     id="layer1"
     transform="translate(0,-87)">
    <rect
       style="fill:none;stroke:none;stroke-width:3.73210526;stroke-linecap:round;stroke-linejoin:round;stroke-miterlimit:4;stroke-dasharray:none"
       id="rect4556"
       width="105.83333"
       height="105.83333"
       x="93.738098"
       y="142.02977"
       inkscape:export-filename="/home/revil/Devel/godot-gamebook-editor/icon.png"
       inkscape:export-xdpi="61.440006"
       inkscape:export-ydpi="61.440006" />
    <g
       id="g4554"
       transform="matrix(0.65010441,0,0,0.65010441,81.376447,114.90131)"
       inkscape:export-filename="/home/revil/Devel/godot-gamebook-editor/icon.png"
       inkscape:export-xdpi="61.440006"
       inkscape:export-ydpi="61.440006">
      <path
         inkscape:connector-curvature="0"
         id="path3724"
         d="m 92.580114,187.65014 c -1.88139,-0.58828 -3.275121,-2.25169 -3.536307,-4.22057 l -0.09729,-0.73339 H 61.959116 34.971715 l -1.48869,-0.51578 c -4.398228,-1.52381 -7.587703,-5.09503 -8.48849,-9.50445 -0.296063,-1.44926 -0.301161,-2.35178 -0.261513,-46.25663 0.03837,-42.481459 0.0546,-44.825609 0.316474,-45.696139 0.800518,-2.66116 1.622972,-4.06971 3.433457,-5.880197 1.84163,-1.84163 3.362366,-2.717666 5.966641,-3.437165 0.923826,-0.255229 2.663091,-0.272317 27.717458,-0.272317 h 26.731775 l 1.202999,0.348699 c 3.837889,1.112438 6.975615,3.85447 8.441816,7.37725 0.510184,1.2258 0.939734,3.12672 0.939734,4.15868 v 0.69503 l 1.043004,0.60025 c 0.57365,0.33014 1.431,0.81829 1.90523,1.08478 l 0.86223,0.48451 0.90579,-2.27548 c 2.19989,-5.5265 4.35247,-9.037132 7.52387,-12.270695 5.92634,-6.042498 14.80839,-9.984264 26.54413,-11.780026 6.54054,-1.000804 16.16986,-1.48879 18.5066,-0.937854 2.55136,0.601535 4.66228,2.549426 5.48308,5.059606 0.26334,0.805365 0.32753,1.493485 0.38712,4.149959 l 0.0714,3.184506 1.35838,0.088 c 4.99626,0.323693 9.19614,3.30522 11.09898,7.879254 1.02343,2.46008 0.9597,-0.92205 0.91482,48.552949 l -0.0406,44.81049 -0.35339,1.13911 c -1.3174,4.24662 -4.21524,7.25749 -8.37683,8.70358 l -1.46793,0.51008 h -26.98524 -26.98524 l -0.0858,0.72439 c -0.21306,1.79897 -1.53683,3.48112 -3.24133,4.11886 -0.8668,0.32431 -1.08156,0.33286 -8.10834,0.32279 -5.481888,-0.008 -7.373165,-0.0589 -7.863212,-0.21208 z m -3.584786,-12.9522 c 1.137976,-0.55884 2.164103,-1.66826 2.586002,-2.79588 l 0.332722,-0.88928 -0.03965,-44.2997 -0.03965,-44.299699 -0.429526,-0.87466 c -0.515125,-1.04896 -1.387955,-1.87468 -2.565048,-2.4266 l -0.868397,-0.40719 H 62.089846 36.207927 l -0.872719,0.40916 c -1.111374,0.52105 -2.060044,1.46972 -2.581096,2.5811 l -0.409162,0.87271 -0.04076,43.883379 c -0.02821,30.38053 0.0095,44.12665 0.122566,44.67398 0.226215,1.09514 1.012805,2.33683 1.908195,3.01223 1.498374,1.13023 -0.690999,1.05065 27.986663,1.01729 l 25.804661,-0.03 z m 76.488672,0.0704 c 1.15782,-0.57605 1.93038,-1.34344 2.48341,-2.4668 l 0.50867,-1.03327 V 126.91809 82.567901 l -0.40915,-0.87271 c -0.81035,-1.72844 -2.40993,-2.83436 -4.36336,-3.01678 l -1.01706,-0.095 -0.041,37.686109 -0.0411,37.6861 -0.34839,0.91477 c -0.77232,2.02789 -2.08491,3.54865 -3.78554,4.38586 -1.83002,0.90092 -2.32913,0.93008 -8.30484,0.48523 -10.17207,-0.75723 -20.63485,1.80509 -28.37588,6.94922 -2.32399,1.54435 -3.99579,2.95219 -6.23637,5.25171 -1.38305,1.41943 -1.99652,1.93148 -2.76739,2.30986 -0.54473,0.26738 -0.96193,0.4872 -0.92711,0.48848 0.0348,0.001 0.34144,0.10295 0.68138,0.22593 0.53146,0.19227 4.23428,0.21901 26.42274,0.19082 l 25.80466,-0.0328 z m -51.39858,-11.81936 c 3.26226,-2.68551 7.65755,-5.28877 11.77097,-6.97176 8.36215,-3.42133 17.98756,-4.62303 28.35237,-3.53969 l 0.90143,0.0942 v -43.21491 c 0,-40.720529 -0.0154,-43.220787 -0.26566,-43.31685 -0.37382,-0.143444 -8.47403,0.221976 -11.16873,0.503853 -14.8443,1.552786 -24.11768,5.863167 -29.24143,13.591758 -1.21736,1.83625 -1.86384,3.14515 -3.20537,6.48979 -0.61358,1.52974 -1.28228,3.07186 -1.486,3.42694 l -0.37041,0.64559 v 38.387429 38.38742 l 1.50656,-1.54229 c 0.82861,-0.84826 2.27143,-2.17193 3.20627,-2.9415 z"
         style="fill:#ffffff;stroke:#ffffff;stroke-width:0.15451895" />
      <path
         inkscape:connector-curvature="0"
         id="path19"
         d="m 72.898185,120.12336 c -2.496753,-2.51114 -2.571016,-2.60522 -2.980383,-3.7757 l -0.419826,-1.20039 -4.181099,-4.17887 -4.181104,-4.17887 -0.870132,0.82294 c -0.478566,0.45261 -0.929847,0.82293 -1.002831,0.82293 -0.317303,0 -0.837159,-0.5227 -0.837159,-0.84174 0,-0.24759 -1.85929,-2.20446 -6.428656,-6.76607 -3.535767,-3.529759 -6.620197,-6.738669 -6.854297,-7.130899 -0.567995,-0.9517 -0.604753,-2.73826 -0.07686,-3.73511 0.730005,-1.37849 2.067297,-2.18845 3.613242,-2.18845 1.665365,0 1.550567,-0.0929 8.747843,7.0792 5.221895,5.203649 6.778255,6.668179 7.101282,6.682329 0.227529,0.01 0.479745,0.12254 0.560479,0.25018 0.298504,0.47196 0.134876,0.89444 -0.643204,1.66082 l -0.794853,0.7829 4.15824,4.16046 4.158235,4.16047 1.192937,0.4228 c 1.15559,0.40958 1.273554,0.50264 3.768251,2.97292 1.998011,1.97847 2.575309,2.64139 2.575309,2.95725 0,0.30807 -0.418448,0.81948 -1.719607,2.10167 -0.976802,0.96257 -1.850414,1.69455 -2.022428,1.69455 -0.180646,0 -1.335961,-1.03909 -2.863383,-2.57532 z m 2.734259,-3.27682 c -1.956593,-1.96095 -2.09658,-2.06742 -3.246913,-2.46952 l -1.20217,-0.42022 -4.300558,-4.28677 c -2.796847,-2.78788 -4.368017,-4.24509 -4.493485,-4.16754 -0.127822,0.079 1.276894,1.59676 4.162597,4.49759 l 4.355531,4.37835 0.35746,1.10936 c 0.339011,1.05213 0.464479,1.21789 2.431345,3.21225 l 2.073878,2.10287 0.953535,-0.95354 0.953534,-0.95353 z m -14.311821,-12.4946 1.700954,-1.70625 -6.537322,-6.516849 c -6.906539,-6.88492 -7.083844,-7.0309 -8.24154,-6.78549 -0.661209,0.14016 -1.47944,0.75641 -1.782529,1.34252 -0.277077,0.53582 -0.307095,1.37678 -0.07173,2.00999 0.141453,0.38056 12.915519,13.362329 13.148538,13.362329 0.0455,0 0.848104,-0.76781 1.783627,-1.70625 z m -7.604738,-6.412979 c -4.578056,-4.57173 -5.749967,-5.82497 -5.749967,-6.14905 0,-0.4919 0.265753,-0.7874 0.708121,-0.7874 0.219914,0 2.24327,1.91809 6.149056,5.82915 3.20171,3.206019 5.821293,5.900179 5.821293,5.986999 0,0.33638 -0.509875,0.86232 -0.835974,0.86232 -0.238988,0 -2.081056,-1.73609 -6.092529,-5.742019 z m -6.412326,24.383679 c -1.430272,-0.39192 -2.372389,-1.43372 -2.695363,-2.98052 -0.146581,-0.70203 -0.129977,-1.00237 0.09916,-1.79407 0.270361,-0.93415 0.366186,-1.04221 5.446393,-6.14139 2.844152,-2.85478 5.295627,-5.23 5.447715,-5.27827 0.44822,-0.14225 0.922418,0.20878 0.922418,0.68284 0,0.34614 -0.952518,1.38085 -5.137548,5.58087 -4.505303,4.52143 -5.151445,5.23097 -5.250376,5.76554 -0.316293,1.70905 1.233257,3.17617 2.806312,2.65701 0.371459,-0.12259 2.277429,-1.92331 6.392232,-6.03924 4.652557,-4.65383 5.946562,-5.86456 6.267895,-5.86456 0.489184,0 0.785282,0.2662 0.785282,0.70602 0,0.45117 -11.757846,12.19378 -12.519989,12.50377 -0.868117,0.35309 -1.757128,0.42313 -2.564129,0.202 z m 0.662359,-2.74508 c -0.639729,-0.22864 -0.832878,-1.08717 -0.344104,-1.5295 0.405758,-0.36721 1.241356,-0.34167 1.447896,0.0443 0.483682,0.90377 -0.190912,1.81149 -1.103792,1.48524 z M 66.068,105.33604 c -0.599368,-0.41981 -0.426957,-0.82469 0.95524,-2.24326 0.719107,-0.73803 1.416804,-1.40105 1.550443,-1.47339 0.139853,-0.0757 0.644296,-0.0371 1.188604,0.0909 3.910644,0.91985 7.385028,-1.11207 8.535233,-4.991639 0.615189,-2.07501 -0.01816,-4.70917 -1.545836,-6.42932 l -0.562984,-0.63393 -0.0066,2.80243 -0.0066,2.80242 -0.673549,0.53812 c -1.186788,0.94817 -3.734245,2.65272 -3.964496,2.65272 -0.122531,0 -1.179446,-0.66062 -2.348702,-1.46803 l -2.125914,-1.46804 -0.07924,-2.91174 -0.07924,-2.91174 -0.662284,0.71897 c -1.683043,1.82706 -2.195142,4.50503 -1.307875,6.83943 0.414593,1.09079 0.39636,1.20718 -0.294878,1.88215 -0.672171,0.65636 -0.971008,0.72184 -1.355461,0.29703 -0.32093,-0.35463 -0.331734,-0.64986 -0.03907,-1.0677 0.192484,-0.27481 0.190545,-0.43781 -0.01407,-1.18424 -0.335981,-1.22561 -0.329451,-3.34692 0.0139,-4.51064 0.591811,-2.00593 1.78341,-3.65553 3.483769,-4.8228 0.645616,-0.44321 0.843898,-0.50769 1.188604,-0.38655 l 0.413723,0.14539 0.04269,3.44053 0.04269,3.44052 0.828948,0.60694 c 0.455912,0.33382 1.152377,0.82715 1.547693,1.09629 l 0.718745,0.48934 1.539604,-1.04395 1.539593,-1.04394 v -3.3664 c 0,-2.84906 0.03825,-3.40466 0.249045,-3.61543 0.39281,-0.39282 0.756186,-0.30004 1.781664,0.45487 1.754753,1.29179 3.044548,3.46207 3.37258,5.67493 0.853972,5.76078 -4.407478,10.812119 -10.010264,9.610539 l -0.819055,-0.17565 -1.212886,1.20577 c -0.667096,0.66319 -1.284592,1.20579 -1.372228,1.20579 -0.08763,0 -0.317835,-0.11102 -0.511551,-0.24671 z"
         style="fill:#ffffff;stroke:#ffffff;stroke-width:0.15848082" />
      <path
         inkscape:connector-curvature="0"
         id="path9"
         d="m 38.680172,132.84174 h 47.23865"
         style="fill:#ffffff;stroke:#ffffff;stroke-width:2.95800376;stroke-linecap:round;stroke-linejoin:round;stroke-miterlimit:4;stroke-dasharray:none;stroke-opacity:1" />
      <path
         style="fill:#ffffff;stroke:#ffffff;stroke-width:2.95800376;stroke-linecap:round;stroke-linejoin:round;stroke-miterlimit:4;stroke-dasharray:none;stroke-opacity:1"
         d="m 38.680172,142.11289 h 47.23865"
         id="path11"
         inkscape:connector-curvature="0" />
      <path
         inkscape:connector-curvature="0"
         id="path13"
         d="m 38.680172,151.38403 h 47.23865"
         style="fill:#ffffff;stroke:#ffffff;stroke-width:2.95800376;stroke-linecap:round;stroke-linejoin:round;stroke-miterlimit:4;stroke-dasharray:none;stroke-opacity:1" />
      <path
         style="fill:#ffffff;stroke:#ffffff;stroke-width:2.95800376;stroke-linecap:round;stroke-linejoin:round;stroke-miterlimit:4;stroke-dasharray:none;stroke-opacity:1"
         d="m 38.680172,160.65517 h 47.23865"
         id="path15"
         inkscape:connector-curvature="0" />
    </g>
  </g>
</svg>
