<?xml version="1.0" encoding="UTF-8" standalone="no"?>
<!-- Created with Inkscape (http://www.inkscape.org/) -->

<svg
   xmlns:dc="http://purl.org/dc/elements/1.1/"
   xmlns:cc="http://creativecommons.org/ns#"
   xmlns:rdf="http://www.w3.org/1999/02/22-rdf-syntax-ns#"
   xmlns:svg="http://www.w3.org/2000/svg"
   xmlns="http://www.w3.org/2000/svg"
   xmlns:sodipodi="http://sodipodi.sourceforge.net/DTD/sodipodi-0.dtd"
   xmlns:inkscape="http://www.inkscape.org/namespaces/inkscape"
   width="4.2333331mm"
   height="4.2333331mm"
   viewBox="0 0 4.2333331 4.2333331"
   version="1.1"
   id="svg8"
   inkscape:version="0.92.4 5da689c313, 2019-01-14"
   sodipodi:docname="icon_trash.svg">
  <defs
     id="defs2" />
  <sodipodi:namedview
     id="base"
     pagecolor="#ffffff"
     bordercolor="#666666"
     borderopacity="1.0"
     inkscape:pageopacity="0.0"
     inkscape:pageshadow="2"
     inkscape:zoom="14.481547"
     inkscape:cx="-15.509062"
     inkscape:cy="-3.6059026"
     inkscape:document-units="mm"
     inkscape:current-layer="layer1"
     showgrid="false"
     inkscape:pagecheckerboard="true"
     fit-margin-top="0"
     fit-margin-left="0"
     fit-margin-right="0"
     fit-margin-bottom="0"
     inkscape:window-width="1920"
     inkscape:window-height="1016"
     inkscape:window-x="0"
     inkscape:window-y="27"
     inkscape:window-maximized="1" />
  <metadata
     id="metadata5">
    <rdf:RDF>
      <cc:Work
         rdf:about="">
        <dc:format>image/svg+xml</dc:format>
        <dc:type
           rdf:resource="http://purl.org/dc/dcmitype/StillImage" />
        <dc:title></dc:title>
      </cc:Work>
    </rdf:RDF>
  </metadata>
  <g
     inkscape:label="Layer 1"
     inkscape:groupmode="layer"
     id="layer1"
     transform="translate(43.163662,-226.70786)">
    <path
       style="fill:#000000;stroke-width:0.08466667"
       d=""
       id="path828"
       inkscape:connector-curvature="0" />
    <path
       style="fill:#000000;stroke-width:0.08466667"
       d=""
       id="path826"
       inkscape:connector-curvature="0" />
    <rect
       style="fill:none;stroke:none;stroke-width:12.66249943;stroke-linecap:round;stroke-linejoin:round;stroke-miterlimit:4;stroke-dasharray:none"
       id="rect859"
       width="4.2333331"
       height="4.2333331"
       x="-43.16478"
       y="226.70992" />
    <path
       style="fill:#ffffff;stroke-width:0.0071087"
       d="m -41.202412,226.88329 c -0.15293,1.9e-4 -0.237706,0.002 -0.255744,0.006 -0.102059,0.0226 -0.19557,0.10068 -0.241078,0.2014 -0.02092,0.0463 -0.02646,0.0688 -0.03247,0.13219 l -0.0073,0.0764 -0.331466,0.002 c -0.32785,0.002 -0.331846,0.003 -0.365376,0.0188 -0.04684,0.023 -0.09005,0.0624 -0.111813,0.10192 -0.02961,0.0538 -0.03664,0.10232 -0.03677,0.25367 h -1.3e-5 l -1.06e-4,0.13752 h 1.536434 1.536435 l -1.14e-4,-0.13386 c -7.6e-5,-0.0793 -0.0037,-0.15193 -0.0089,-0.17825 -0.01616,-0.0821 -0.06375,-0.14374 -0.13964,-0.181 -0.03355,-0.0164 -0.03737,-0.0166 -0.368997,-0.0188 l -0.335099,-0.002 -0.0031,-0.0711 c -0.0039,-0.0864 -0.02067,-0.13755 -0.06629,-0.20148 -0.03569,-0.05 -0.09592,-0.0975 -0.157148,-0.12375 l -0.04024,-0.0173 -0.395492,-0.002 c -0.06618,-3.6e-4 -0.124729,-5.2e-4 -0.175705,-4.5e-4 z m -0.229087,0.24461 h 0.383449 0.383463 l 0.02603,0.0211 c 0.03221,0.0262 0.04523,0.058 0.04523,0.11065 v 0.0406 h -0.454729 -0.454729 v -0.0443 c 0,-0.0527 0.01145,-0.0794 0.04596,-0.10744 z m 0.383867,0.85446 c -0.769028,0 -1.399438,0.003 -1.400899,0.006 -0.0015,0.003 0.02147,0.18702 0.05095,0.4089 0.02948,0.22187 0.06446,0.48591 0.07776,0.58676 0.0133,0.10084 0.04148,0.31374 0.06263,0.47308 0.02114,0.15934 0.04285,0.32437 0.04826,0.36673 0.0054,0.0423 0.03465,0.26513 0.06497,0.49507 0.05367,0.40702 0.0556,0.41851 0.07295,0.43458 l 0.01783,0.0165 h 1.005135 1.00515 l 0.01742,-0.0165 c 0.01677,-0.0159 0.01933,-0.031 0.06953,-0.41257 0.08226,-0.62521 0.119764,-0.90909 0.13423,-1.01583 0.0073,-0.0544 0.03376,-0.25415 0.05863,-0.44374 0.02487,-0.1896 0.06062,-0.46065 0.07944,-0.60232 0.01883,-0.14168 0.03422,-0.26628 0.03422,-0.27688 v -0.0193 z m -0.712776,0.4507 c 0.04598,0.002 0.09211,0.0346 0.105151,0.0797 0.0075,0.026 0.01233,0.0769 0.04244,0.44878 0.01143,0.14119 0.038,0.46463 0.05906,0.71878 0.02105,0.25414 0.0388,0.48353 0.03946,0.50975 0.0015,0.0599 -0.0177,0.0975 -0.06017,0.11805 -0.06065,0.0293 -0.123067,0.007 -0.152868,-0.0535 -0.0088,-0.018 -0.0271,-0.21692 -0.07507,-0.81634 -0.0058,-0.0726 -0.01662,-0.20464 -0.02403,-0.29339 -0.04229,-0.50652 -0.04882,-0.59634 -0.04495,-0.61838 0.0061,-0.0347 0.04713,-0.0802 0.08114,-0.09 0.0068,-0.002 0.01368,-0.003 0.02065,-0.004 0.003,-1.5e-4 0.0062,-1.5e-4 0.0092,-4e-5 z m 1.432104,0 c 0.0076,2.7e-4 0.01515,0.002 0.02247,0.004 0.03267,0.009 0.07394,0.0537 0.08077,0.0868 0.0025,0.012 -0.0019,0.10069 -0.0099,0.19701 -0.0079,0.0963 -0.02514,0.3055 -0.03828,0.46484 -0.01314,0.15934 -0.03793,0.4609 -0.05509,0.67012 -0.02037,0.24828 -0.03449,0.38713 -0.04066,0.39973 -0.01251,0.0256 -0.03724,0.0495 -0.06115,0.0591 -0.06224,0.0252 -0.131246,-0.0128 -0.149988,-0.0823 -0.0056,-0.0207 0.0087,-0.20619 0.114529,-1.49041 0.0096,-0.11699 0.02088,-0.22178 0.02498,-0.23288 0.01597,-0.0433 0.06059,-0.0736 0.104693,-0.0755 0.0026,-1.1e-4 0.005,-1.1e-4 0.0076,-3e-5 z m -0.723514,5.1e-4 c 0.03388,-1.1e-4 0.04845,0.004 0.0631,0.015 0.03044,0.0241 0.04551,0.0508 0.05144,0.0907 0.003,0.0205 0.005,0.41127 0.0042,0.86841 l -0.0013,0.83116 -0.01832,0.0295 c -0.01008,0.0162 -0.02869,0.0345 -0.04134,0.0408 -0.06284,0.0307 -0.117487,0.0147 -0.152074,-0.0445 l -0.01562,-0.0267 -0.0021,-0.83615 c -0.0015,-0.58611 1.02e-4,-0.84725 0.0054,-0.87337 0.0056,-0.0279 0.0145,-0.0445 0.03509,-0.0659 0.02614,-0.0272 0.02973,-0.0286 0.07158,-0.0287 z"
       id="path840"
       inkscape:connector-curvature="0" />
  </g>
</svg>
